{
  "project_info": {
    "project_number": "789611368894",
    "firebase_url": "https://ad-ug-1c063.firebaseio.com",
    "project_id": "ad-ug-1c063",
    "storage_bucket": "ad-ug-1c063.appspot.com"
  },
  "client": [
    {
      "client_info": {
        "mobilesdk_app_id": "1:789611368894:android:0f8f720e469e519561e9ef",
        "android_client_info": {
          "package_name": "com.example.crudfirestore"
        }
      },
      "oauth_client": [
        {
          "client_id": "789611368894-cqmo3d1skcr937mlbj5ma5uqorvdj51v.apps.googleusercontent.com",
          "client_type": 3
        }
      ],
      "api_key": [
        {
          "current_key": "AIzaSyDBF3Tb0Xbg8x0xd820cRCwImtTvRFgLvw"
        }
      ],
      "services": {
        "appinvite_service": {
          "other_platform_oauth_client": [
            {
              "client_id": "789611368894-cqmo3d1skcr937mlbj5ma5uqorvdj51v.apps.googleusercontent.com",
              "client_type": 3
            }
          ]
        }
      }
    },
    {
      "client_info": {
        "mobilesdk_app_id": "1:789611368894:android:523548a4d8b300f261e9ef",
        "android_client_info": {
          "package_name": "com.example.crudfirestoreapp"
        }
      },
      "oauth_client": [
        {
          "client_id": "789611368894-03o75glgdnnhdgr6u7l0run9jc3mq26i.apps.googleusercontent.com",
          "client_type": 1,
          "android_info": {
            "package_name": "com.example.crudfirestoreapp",
            "certificate_hash": "4ec4857386c6cded6f70610cc087e07bb522f7f6"
          }
        },
        {
          "client_id": "789611368894-cqmo3d1skcr937mlbj5ma5uqorvdj51v.apps.googleusercontent.com",
          "client_type": 3
        }
      ],
      "api_key": [
        {
          "current_key": "AIzaSyDBF3Tb0Xbg8x0xd820cRCwImtTvRFgLvw"
        }
      ],
      "services": {
        "appinvite_service": {
          "other_platform_oauth_client": [
            {
              "client_id": "789611368894-cqmo3d1skcr937mlbj5ma5uqorvdj51v.apps.googleusercontent.com",
              "client_type": 3
            }
          ]
        }
      }
    }
  ],
  "configuration_version": "1"
}